{
    "count": 10,
    "filters": {
        "matchday": "35"
    },
    "competition": {
        "id": 2014,
        "area": {
            "id": 2224,
            "name": "Spain"
        },
        "name": "Primera Division",
        "code": "PD",
        "plan": "TIER_ONE",
        "lastUpdated": "2021-04-17T00:00:28Z"
    },
    "matches": [
        {
            "id": 308670,
            "season": {
                "id": 635,
                "startDate": "2020-09-13",
                "endDate": "2021-05-23",
                "currentMatchday": 35
            },
            "utcDate": "2021-05-07T19:00:00Z",
            "status": "FINISHED",
            "matchday": 35,
            "stage": "REGULAR_SEASON",
            "group": "Regular Season",
            "lastUpdated": "2021-05-09T15:14:53Z",
            "odds": {
                "msg": "Activate Odds-Package in User-Panel to retrieve odds."
            },
            "score": {
                "winner": "HOME_TEAM",
                "duration": "REGULAR",
                "fullTime": {
                    "homeTeam": 2,
                    "awayTeam": 0
                },
                "halfTime": {
                    "homeTeam": 0,
                    "awayTeam": 0
                },
                "extraTime": {
                    "homeTeam": null,
                    "awayTeam": null
                },
                "penalties": {
                    "homeTeam": null,
                    "awayTeam": null
                }
            },
            "homeTeam": {
                "id": 92,
                "name": "Real Sociedad de Fútbol"
            },
            "awayTeam": {
                "id": 285,
                "name": "Elche CF"
            },
            "referees": [
                {
                    "id": 32621,
                    "name": "Adrián Cordero",
                    "role": "REFEREE",
                    "nationality": "Spain"
                },
                {
                    "id": 43873,
                    "name": "Diego Barbero",
                    "role": "ASSISTANT_REFEREE_N1",
                    "nationality": "Spain"
                },
                {
                    "id": 32624,
                    "name": "Antonio Cerezo",
                    "role": "ASSISTANT_REFEREE_N2",
                    "nationality": "Spain"
                },
                {
                    "id": 57957,
                    "name": "Marcos Latorre",
                    "role": "FOURTH_OFFICIAL",
                    "nationality": "Spain"
                },
                {
                    "id": 57917,
                    "name": "Jorge Figueroa",
                    "role": "VIDEO_ASSISANT_REFEREE_N1",
                    "nationality": "Spain"
                },
                {
                    "id": 57915,
                    "name": "Antonio Martínez",
                    "role": "VIDEO_ASSISANT_REFEREE_N2",
                    "nationality": "Spain"
                }
            ]
        },
        {
            "id": 308673,
            "season": {
                "id": 635,
                "startDate": "2020-09-13",
                "endDate": "2021-05-23",
                "currentMatchday": 35
            },
            "utcDate": "2021-05-08T12:00:00Z",
            "status": "FINISHED",
            "matchday": 35,
            "stage": "REGULAR_SEASON",
            "group": "Regular Season",
            "lastUpdated": "2021-05-09T15:14:44Z",
            "odds": {
                "msg": "Activate Odds-Package in User-Panel to retrieve odds."
            },
            "score": {
                "winner": "DRAW",
                "duration": "REGULAR",
                "fullTime": {
                    "homeTeam": 2,
                    "awayTeam": 2
                },
                "halfTime": {
                    "homeTeam": 1,
                    "awayTeam": 2
                },
                "extraTime": {
                    "homeTeam": null,
                    "awayTeam": null
                },
                "penalties": {
                    "homeTeam": null,
                    "awayTeam": null
                }
            },
            "homeTeam": {
                "id": 263,
                "name": "Deportivo Alavés"
            },
            "awayTeam": {
                "id": 88,
                "name": "Levante UD"
            },
            "referees": [
                {
                    "id": 43843,
                    "name": "Carlos del Cerro",
                    "role": "REFEREE",
                    "nationality": "Spain"
                },
                {
                    "id": 43844,
                    "name": "Juan Carlos Yuste",
                    "role": "ASSISTANT_REFEREE_N1",
                    "nationality": "Spain"
                },
                {
                    "id": 57923,
                    "name": "Gonzalo García",
                    "role": "ASSISTANT_REFEREE_N2",
                    "nationality": "Spain"
                },
                {
                    "id": 57154,
                    "name": "Alberto Fuente Martín",
                    "role": "FOURTH_OFFICIAL",
                    "nationality": "Spain"
                },
                {
                    "id": 106,
                    "name": "José Sánchez",
                    "role": "VIDEO_ASSISANT_REFEREE_N1",
                    "nationality": "Spain"
                },
                {
                    "id": 32243,
                    "name": "Raúl Cabañero",
                    "role": "VIDEO_ASSISANT_REFEREE_N2",
                    "nationality": "Spain"
                }
            ]
        },
        {
            "id": 308666,
            "season": {
                "id": 635,
                "startDate": "2020-09-13",
                "endDate": "2021-05-23",
                "currentMatchday": 35
            },
            "utcDate": "2021-05-08T14:15:00Z",
            "status": "FINISHED",
            "matchday": 35,
            "stage": "REGULAR_SEASON",
            "group": "Regular Season",
            "lastUpdated": "2021-05-09T08:20:23Z",
            "odds": {
                "msg": "Activate Odds-Package in User-Panel to retrieve odds."
            },
            "score": {
                "winner": "DRAW",
                "duration": "REGULAR",
                "fullTime": {
                    "homeTeam": 0,
                    "awayTeam": 0
                },
                "halfTime": {
                    "homeTeam": 0,
                    "awayTeam": 0
                },
                "extraTime": {
                    "homeTeam": null,
                    "awayTeam": null
                },
                "penalties": {
                    "homeTeam": null,
                    "awayTeam": null
                }
            },
            "homeTeam": {
                "id": 81,
                "name": "FC Barcelona"
            },
            "awayTeam": {
                "id": 78,
                "name": "Club Atlético de Madrid"
            },
            "referees": [
                {
                    "id": 43869,
                    "name": "Antonio Matéu Lahoz",
                    "role": "REFEREE",
                    "nationality": "Spain"
                },
                {
                    "id": 134,
                    "name": "Pau Cebrián Devis",
                    "role": "ASSISTANT_REFEREE_N1",
                    "nationality": "Spain"
                },
                {
                    "id": 56965,
                    "name": "Iker De Francisco",
                    "role": "ASSISTANT_REFEREE_N2",
                    "nationality": "Spain"
                },
                {
                    "id": 167737,
                    "name": "Ivan Munoz",
                    "role": "FOURTH_OFFICIAL",
                    "nationality": null
                },
                {
                    "id": 43867,
                    "name": "Ignacio Iglesias",
                    "role": "VIDEO_ASSISANT_REFEREE_N1",
                    "nationality": "Spain"
                },
                {
                    "id": 56964,
                    "name": "Jon Núnez",
                    "role": "VIDEO_ASSISANT_REFEREE_N2",
                    "nationality": "Spain"
                }
            ]
        },
        {
            "id": 308674,
            "season": {
                "id": 635,
                "startDate": "2020-09-13",
                "endDate": "2021-05-23",
                "currentMatchday": 35
            },
            "utcDate": "2021-05-08T16:30:00Z",
            "status": "FINISHED",
            "matchday": 35,
            "stage": "REGULAR_SEASON",
            "group": "Regular Season",
            "lastUpdated": "2021-05-09T15:11:17Z",
            "odds": {
                "msg": "Activate Odds-Package in User-Panel to retrieve odds."
            },
            "score": {
                "winner": "HOME_TEAM",
                "duration": "REGULAR",
                "fullTime": {
                    "homeTeam": 2,
                    "awayTeam": 1
                },
                "halfTime": {
                    "homeTeam": 2,
                    "awayTeam": 1
                },
                "extraTime": {
                    "homeTeam": null,
                    "awayTeam": null
                },
                "penalties": {
                    "homeTeam": null,
                    "awayTeam": null
                }
            },
            "homeTeam": {
                "id": 264,
                "name": "Cádiz CF"
            },
            "awayTeam": {
                "id": 299,
                "name": "SD Huesca"
            },
            "referees": [
                {
                    "id": 15625,
                    "name": "Alejandro Hernández",
                    "role": "REFEREE",
                    "nationality": "Spain"
                },
                {
                    "id": 15627,
                    "name": "José Naranjo",
                    "role": "ASSISTANT_REFEREE_N1",
                    "nationality": "Spain"
                },
                {
                    "id": 32170,
                    "name": "Diego Sánchez",
                    "role": "ASSISTANT_REFEREE_N2",
                    "nationality": "Spain"
                },
                {
                    "id": 167779,
                    "name": "Nestor Holgueras",
                    "role": "FOURTH_OFFICIAL",
                    "nationality": null
                },
                {
                    "id": 15628,
                    "name": "Ricardo de Burgos",
                    "role": "VIDEO_ASSISANT_REFEREE_N1",
                    "nationality": "Spain"
                },
                {
                    "id": 57901,
                    "name": "José Garrido",
                    "role": "VIDEO_ASSISANT_REFEREE_N2",
                    "nationality": "Spain"
                }
            ]
        },
        {
            "id": 308668,
            "season": {
                "id": 635,
                "startDate": "2020-09-13",
                "endDate": "2021-05-23",
                "currentMatchday": 35
            },
            "utcDate": "2021-05-08T19:00:00Z",
            "status": "FINISHED",
            "matchday": 35,
            "stage": "REGULAR_SEASON",
            "group": "Regular Season",
            "lastUpdated": "2021-05-09T15:14:23Z",
            "odds": {
                "msg": "Activate Odds-Package in User-Panel to retrieve odds."
            },
            "score": {
                "winner": "DRAW",
                "duration": "REGULAR",
                "fullTime": {
                    "homeTeam": 2,
                    "awayTeam": 2
                },
                "halfTime": {
                    "homeTeam": 1,
                    "awayTeam": 1
                },
                "extraTime": {
                    "homeTeam": null,
                    "awayTeam": null
                },
                "penalties": {
                    "homeTeam": null,
                    "awayTeam": null
                }
            },
            "homeTeam": {
                "id": 77,
                "name": "Athletic Club"
            },
            "awayTeam": {
                "id": 79,
                "name": "CA Osasuna"
            },
            "referees": [
                {
                    "id": 57921,
                    "name": "Valentín Pizarro",
                    "role": "REFEREE",
                    "nationality": "Spain"
                },
                {
                    "id": 43872,
                    "name": "Roberto Alonso",
                    "role": "ASSISTANT_REFEREE_N1",
                    "nationality": "Spain"
                },
                {
                    "id": 58174,
                    "name": "Iván Masso Granado",
                    "role": "ASSISTANT_REFEREE_N2",
                    "nationality": "Spain"
                },
                {
                    "id": 167736,
                    "name": "Alfonso De Ena",
                    "role": "FOURTH_OFFICIAL",
                    "nationality": null
                },
                {
                    "id": 43864,
                    "name": "Javier Estrada",
                    "role": "VIDEO_ASSISANT_REFEREE_N1",
                    "nationality": "Spain"
                },
                {
                    "id": 57932,
                    "name": "Guadalupe Porras",
                    "role": "VIDEO_ASSISANT_REFEREE_N2",
                    "nationality": "Spain"
                }
            ]
        },
        {
            "id": 308669,
            "season": {
                "id": 635,
                "startDate": "2020-09-13",
                "endDate": "2021-05-23",
                "currentMatchday": 35
            },
            "utcDate": "2021-05-09T12:00:00Z",
            "status": "FINISHED",
            "matchday": 35,
            "stage": "REGULAR_SEASON",
            "group": "Regular Season",
            "lastUpdated": "2021-05-09T23:59:08Z",
            "odds": {
                "msg": "Activate Odds-Package in User-Panel to retrieve odds."
            },
            "score": {
                "winner": "AWAY_TEAM",
                "duration": "REGULAR",
                "fullTime": {
                    "homeTeam": 0,
                    "awayTeam": 1
                },
                "halfTime": {
                    "homeTeam": 0,
                    "awayTeam": 0
                },
                "extraTime": {
                    "homeTeam": null,
                    "awayTeam": null
                },
                "penalties": {
                    "homeTeam": null,
                    "awayTeam": null
                }
            },
            "homeTeam": {
                "id": 82,
                "name": "Getafe CF"
            },
            "awayTeam": {
                "id": 278,
                "name": "SD Eibar"
            },
            "referees": [
                {
                    "id": 56968,
                    "name": "Iván Hernández",
                    "role": "ASSISTANT_REFEREE_N1",
                    "nationality": "Spain"
                },
                {
                    "id": 56969,
                    "name": "Marcos Cerdán Aguilar",
                    "role": "ASSISTANT_REFEREE_N2",
                    "nationality": "Spain"
                },
                {
                    "id": 57276,
                    "name": "Francisco Sáez Vital",
                    "role": "FOURTH_OFFICIAL",
                    "nationality": "Spain"
                },
                {
                    "id": 80747,
                    "name": "Javier Alberola Rojas",
                    "role": "REFEREE",
                    "nationality": null
                },
                {
                    "id": 55934,
                    "name": "Guillermo Cuadra",
                    "role": "VIDEO_ASSISANT_REFEREE_N1",
                    "nationality": "Spain"
                },
                {
                    "id": 15626,
                    "name": "Teodoro Sobrino",
                    "role": "VIDEO_ASSISANT_REFEREE_N2",
                    "nationality": "Spain"
                }
            ]
        },
        {
            "id": 308667,
            "season": {
                "id": 635,
                "startDate": "2020-09-13",
                "endDate": "2021-05-23",
                "currentMatchday": 35
            },
            "utcDate": "2021-05-09T14:15:00Z",
            "status": "FINISHED",
            "matchday": 35,
            "stage": "REGULAR_SEASON",
            "group": "Regular Season",
            "lastUpdated": "2021-05-09T23:59:08Z",
            "odds": {
                "msg": "Activate Odds-Package in User-Panel to retrieve odds."
            },
            "score": {
                "winner": "HOME_TEAM",
                "duration": "REGULAR",
                "fullTime": {
                    "homeTeam": 3,
                    "awayTeam": 0
                },
                "halfTime": {
                    "homeTeam": 1,
                    "awayTeam": 0
                },
                "extraTime": {
                    "homeTeam": null,
                    "awayTeam": null
                },
                "penalties": {
                    "homeTeam": null,
                    "awayTeam": null
                }
            },
            "homeTeam": {
                "id": 95,
                "name": "Valencia CF"
            },
            "awayTeam": {
                "id": 250,
                "name": "Real Valladolid CF"
            },
            "referees": [
                {
                    "id": 32192,
                    "name": "Ángel Nevado",
                    "role": "ASSISTANT_REFEREE_N1",
                    "nationality": "Spain"
                },
                {
                    "id": 56941,
                    "name": "Javier Martínez",
                    "role": "ASSISTANT_REFEREE_N2",
                    "nationality": "Spain"
                },
                {
                    "id": 128736,
                    "name": "Jesús Delfa",
                    "role": "FOURTH_OFFICIAL",
                    "nationality": "Spain"
                },
                {
                    "id": 43870,
                    "name": "Jesús Gil",
                    "role": "REFEREE",
                    "nationality": "Spain"
                },
                {
                    "id": 295,
                    "name": "José Munuera",
                    "role": "VIDEO_ASSISANT_REFEREE_N1",
                    "nationality": null
                },
                {
                    "id": 296,
                    "name": "Alfonso Baena Espejo",
                    "role": "VIDEO_ASSISANT_REFEREE_N2",
                    "nationality": "Spain"
                }
            ]
        },
        {
            "id": 308672,
            "season": {
                "id": 635,
                "startDate": "2020-09-13",
                "endDate": "2021-05-23",
                "currentMatchday": 35
            },
            "utcDate": "2021-05-09T16:30:00Z",
            "status": "FINISHED",
            "matchday": 35,
            "stage": "REGULAR_SEASON",
            "group": "Regular Season",
            "lastUpdated": "2021-05-09T23:59:08Z",
            "odds": {
                "msg": "Activate Odds-Package in User-Panel to retrieve odds."
            },
            "score": {
                "winner": "AWAY_TEAM",
                "duration": "REGULAR",
                "fullTime": {
                    "homeTeam": 2,
                    "awayTeam": 4
                },
                "halfTime": {
                    "homeTeam": 1,
                    "awayTeam": 3
                },
                "extraTime": {
                    "homeTeam": null,
                    "awayTeam": null
                },
                "penalties": {
                    "homeTeam": null,
                    "awayTeam": null
                }
            },
            "homeTeam": {
                "id": 94,
                "name": "Villarreal CF"
            },
            "awayTeam": {
                "id": 558,
                "name": "RC Celta de Vigo"
            },
            "referees": [
                {
                    "id": 40,
                    "name": "Juan Barranco",
                    "role": "ASSISTANT_REFEREE_N1",
                    "nationality": "Spain"
                },
                {
                    "id": 41,
                    "name": "Joan Méndez",
                    "role": "ASSISTANT_REFEREE_N2",
                    "nationality": "Spain"
                },
                {
                    "id": 109,
                    "name": "Albert Catalá",
                    "role": "FOURTH_OFFICIAL",
                    "nationality": "Spain"
                },
                {
                    "id": 56963,
                    "name": "David Medié",
                    "role": "REFEREE",
                    "nationality": "Spain"
                },
                {
                    "id": 56978,
                    "name": "Pablo González",
                    "role": "VIDEO_ASSISANT_REFEREE_N1",
                    "nationality": "Spain"
                },
                {
                    "id": 32089,
                    "name": "Alfredo Rodríguez",
                    "role": "VIDEO_ASSISANT_REFEREE_N2",
                    "nationality": "Spain"
                }
            ]
        },
        {
            "id": 308665,
            "season": {
                "id": 635,
                "startDate": "2020-09-13",
                "endDate": "2021-05-23",
                "currentMatchday": 35
            },
            "utcDate": "2021-05-09T19:00:00Z",
            "status": "FINISHED",
            "matchday": 35,
            "stage": "REGULAR_SEASON",
            "group": "Regular Season",
            "lastUpdated": "2021-05-09T23:59:08Z",
            "odds": {
                "msg": "Activate Odds-Package in User-Panel to retrieve odds."
            },
            "score": {
                "winner": "DRAW",
                "duration": "REGULAR",
                "fullTime": {
                    "homeTeam": 2,
                    "awayTeam": 2
                },
                "halfTime": {
                    "homeTeam": 0,
                    "awayTeam": 1
                },
                "extraTime": {
                    "homeTeam": null,
                    "awayTeam": null
                },
                "penalties": {
                    "homeTeam": null,
                    "awayTeam": null
                }
            },
            "homeTeam": {
                "id": 86,
                "name": "Real Madrid CF"
            },
            "awayTeam": {
                "id": 559,
                "name": "Sevilla FC"
            },
            "referees": [
                {
                    "id": 3158,
                    "name": "Iñigo Prieto",
                    "role": "ASSISTANT_REFEREE_N1",
                    "nationality": "Spain"
                },
                {
                    "id": 43865,
                    "name": "Miguel Martínez",
                    "role": "ASSISTANT_REFEREE_N2",
                    "nationality": "Spain"
                },
                {
                    "id": 44954,
                    "name": "Aimar Velasco",
                    "role": "FOURTH_OFFICIAL",
                    "nationality": "Spain"
                },
                {
                    "id": 81,
                    "name": "Juan Martínez",
                    "role": "REFEREE",
                    "nationality": "Spain"
                },
                {
                    "id": 56957,
                    "name": "José González",
                    "role": "VIDEO_ASSISANT_REFEREE_N1",
                    "nationality": "Spain"
                },
                {
                    "id": 56958,
                    "name": "Rubén Becerril",
                    "role": "VIDEO_ASSISANT_REFEREE_N2",
                    "nationality": "Spain"
                }
            ]
        },
        {
            "id": 308671,
            "season": {
                "id": 635,
                "startDate": "2020-09-13",
                "endDate": "2021-05-23",
                "currentMatchday": 35
            },
            "utcDate": "2021-05-10T19:00:00Z",
            "status": "SCHEDULED",
            "matchday": 35,
            "stage": "REGULAR_SEASON",
            "group": "Regular Season",
            "lastUpdated": "2021-04-26T11:46:31Z",
            "odds": {
                "msg": "Activate Odds-Package in User-Panel to retrieve odds."
            },
            "score": {
                "winner": null,
                "duration": "REGULAR",
                "fullTime": {
                    "homeTeam": null,
                    "awayTeam": null
                },
                "halfTime": {
                    "homeTeam": null,
                    "awayTeam": null
                },
                "extraTime": {
                    "homeTeam": null,
                    "awayTeam": null
                },
                "penalties": {
                    "homeTeam": null,
                    "awayTeam": null
                }
            },
            "homeTeam": {
                "id": 90,
                "name": "Real Betis Balompié"
            },
            "awayTeam": {
                "id": 83,
                "name": "Granada CF"
            },
            "referees": [
                {
                    "id": 81436,
                    "name": "Carlos Álvarez",
                    "role": "ASSISTANT_REFEREE_N1",
                    "nationality": "Spain"
                },
                {
                    "id": 32355,
                    "name": "Rubén Porras",
                    "role": "ASSISTANT_REFEREE_N2",
                    "nationality": "Spain"
                },
                {
                    "id": 58175,
                    "name": "Manuel Pérez",
                    "role": "FOURTH_OFFICIAL",
                    "nationality": "Spain"
                },
                {
                    "id": 32457,
                    "name": "César Soto",
                    "role": "REFEREE",
                    "nationality": "Spain"
                },
                {
                    "id": 161396,
                    "name": "Jaime Latre",
                    "role": "VIDEO_ASSISANT_REFEREE_N1",
                    "nationality": null
                },
                {
                    "id": 56973,
                    "name": "Fernando Tresaco Escabosa",
                    "role": "VIDEO_ASSISANT_REFEREE_N2",
                    "nationality": "Spain"
                }
            ]
        }
    ]
}