{
    "count": 10,
    "filters": {
        "matchday": "31"
    },
    "competition": {
        "id": 2014,
        "area": {
            "id": 2224,
            "name": "Spain"
        },
        "name": "Primera Division",
        "code": "PD",
        "plan": "TIER_ONE",
        "lastUpdated": "2021-04-13T03:00:20Z"
    },
    "matches": [
        {
            "id": 308627,
            "season": {
                "id": 635,
                "startDate": "2020-09-13",
                "endDate": "2021-05-23",
                "currentMatchday": 33
            },
            "utcDate": "2021-04-21T17:00:00Z",
            "status": "SCHEDULED",
            "matchday": 31,
            "stage": "REGULAR_SEASON",
            "group": "Regular Season",
            "lastUpdated": "2021-04-01T18:33:12Z",
            "odds": {
                "msg": "Activate Odds-Package in User-Panel to retrieve odds."
            },
            "score": {
                "winner": null,
                "duration": "REGULAR",
                "fullTime": {
                    "homeTeam": null,
                    "awayTeam": null
                },
                "halfTime": {
                    "homeTeam": null,
                    "awayTeam": null
                },
                "extraTime": {
                    "homeTeam": null,
                    "awayTeam": null
                },
                "penalties": {
                    "homeTeam": null,
                    "awayTeam": null
                }
            },
            "homeTeam": {
                "id": 88,
                "name": "Levante UD"
            },
            "awayTeam": {
                "id": 559,
                "name": "Sevilla FC"
            },
            "referees": []
        },
        {
            "id": 308628,
            "season": {
                "id": 635,
                "startDate": "2020-09-13",
                "endDate": "2021-05-23",
                "currentMatchday": 33
            },
            "utcDate": "2021-04-21T17:00:00Z",
            "status": "SCHEDULED",
            "matchday": 31,
            "stage": "REGULAR_SEASON",
            "group": "Regular Season",
            "lastUpdated": "2021-04-01T18:33:12Z",
            "odds": {
                "msg": "Activate Odds-Package in User-Panel to retrieve odds."
            },
            "score": {
                "winner": null,
                "duration": "REGULAR",
                "fullTime": {
                    "homeTeam": null,
                    "awayTeam": null
                },
                "halfTime": {
                    "homeTeam": null,
                    "awayTeam": null
                },
                "extraTime": {
                    "homeTeam": null,
                    "awayTeam": null
                },
                "penalties": {
                    "homeTeam": null,
                    "awayTeam": null
                }
            },
            "homeTeam": {
                "id": 79,
                "name": "CA Osasuna"
            },
            "awayTeam": {
                "id": 95,
                "name": "Valencia CF"
            },
            "referees": []
        },
        {
            "id": 308630,
            "season": {
                "id": 635,
                "startDate": "2020-09-13",
                "endDate": "2021-05-23",
                "currentMatchday": 33
            },
            "utcDate": "2021-04-21T18:00:00Z",
            "status": "SCHEDULED",
            "matchday": 31,
            "stage": "REGULAR_SEASON",
            "group": "Regular Season",
            "lastUpdated": "2021-04-01T18:33:12Z",
            "odds": {
                "msg": "Activate Odds-Package in User-Panel to retrieve odds."
            },
            "score": {
                "winner": null,
                "duration": "REGULAR",
                "fullTime": {
                    "homeTeam": null,
                    "awayTeam": null
                },
                "halfTime": {
                    "homeTeam": null,
                    "awayTeam": null
                },
                "extraTime": {
                    "homeTeam": null,
                    "awayTeam": null
                },
                "penalties": {
                    "homeTeam": null,
                    "awayTeam": null
                }
            },
            "homeTeam": {
                "id": 90,
                "name": "Real Betis Balompié"
            },
            "awayTeam": {
                "id": 77,
                "name": "Athletic Club"
            },
            "referees": []
        },
        {
            "id": 308632,
            "season": {
                "id": 635,
                "startDate": "2020-09-13",
                "endDate": "2021-05-23",
                "currentMatchday": 33
            },
            "utcDate": "2021-04-21T19:00:00Z",
            "status": "SCHEDULED",
            "matchday": 31,
            "stage": "REGULAR_SEASON",
            "group": "Regular Season",
            "lastUpdated": "2021-04-01T18:33:12Z",
            "odds": {
                "msg": "Activate Odds-Package in User-Panel to retrieve odds."
            },
            "score": {
                "winner": null,
                "duration": "REGULAR",
                "fullTime": {
                    "homeTeam": null,
                    "awayTeam": null
                },
                "halfTime": {
                    "homeTeam": null,
                    "awayTeam": null
                },
                "extraTime": {
                    "homeTeam": null,
                    "awayTeam": null
                },
                "penalties": {
                    "homeTeam": null,
                    "awayTeam": null
                }
            },
            "homeTeam": {
                "id": 285,
                "name": "Elche CF"
            },
            "awayTeam": {
                "id": 250,
                "name": "Real Valladolid CF"
            },
            "referees": []
        },
        {
            "id": 308633,
            "season": {
                "id": 635,
                "startDate": "2020-09-13",
                "endDate": "2021-05-23",
                "currentMatchday": 33
            },
            "utcDate": "2021-04-21T19:00:00Z",
            "status": "SCHEDULED",
            "matchday": 31,
            "stage": "REGULAR_SEASON",
            "group": "Regular Season",
            "lastUpdated": "2021-04-01T18:33:12Z",
            "odds": {
                "msg": "Activate Odds-Package in User-Panel to retrieve odds."
            },
            "score": {
                "winner": null,
                "duration": "REGULAR",
                "fullTime": {
                    "homeTeam": null,
                    "awayTeam": null
                },
                "halfTime": {
                    "homeTeam": null,
                    "awayTeam": null
                },
                "extraTime": {
                    "homeTeam": null,
                    "awayTeam": null
                },
                "penalties": {
                    "homeTeam": null,
                    "awayTeam": null
                }
            },
            "homeTeam": {
                "id": 263,
                "name": "Deportivo Alavés"
            },
            "awayTeam": {
                "id": 94,
                "name": "Villarreal CF"
            },
            "referees": []
        },
        {
            "id": 308634,
            "season": {
                "id": 635,
                "startDate": "2020-09-13",
                "endDate": "2021-05-23",
                "currentMatchday": 33
            },
            "utcDate": "2021-04-21T20:00:00Z",
            "status": "SCHEDULED",
            "matchday": 31,
            "stage": "REGULAR_SEASON",
            "group": "Regular Season",
            "lastUpdated": "2021-04-01T18:33:13Z",
            "odds": {
                "msg": "Activate Odds-Package in User-Panel to retrieve odds."
            },
            "score": {
                "winner": null,
                "duration": "REGULAR",
                "fullTime": {
                    "homeTeam": null,
                    "awayTeam": null
                },
                "halfTime": {
                    "homeTeam": null,
                    "awayTeam": null
                },
                "extraTime": {
                    "homeTeam": null,
                    "awayTeam": null
                },
                "penalties": {
                    "homeTeam": null,
                    "awayTeam": null
                }
            },
            "homeTeam": {
                "id": 264,
                "name": "Cádiz CF"
            },
            "awayTeam": {
                "id": 86,
                "name": "Real Madrid CF"
            },
            "referees": []
        },
        {
            "id": 308626,
            "season": {
                "id": 635,
                "startDate": "2020-09-13",
                "endDate": "2021-05-23",
                "currentMatchday": 33
            },
            "utcDate": "2021-04-22T17:00:00Z",
            "status": "SCHEDULED",
            "matchday": 31,
            "stage": "REGULAR_SEASON",
            "group": "Regular Season",
            "lastUpdated": "2021-04-01T18:33:13Z",
            "odds": {
                "msg": "Activate Odds-Package in User-Panel to retrieve odds."
            },
            "score": {
                "winner": null,
                "duration": "REGULAR",
                "fullTime": {
                    "homeTeam": null,
                    "awayTeam": null
                },
                "halfTime": {
                    "homeTeam": null,
                    "awayTeam": null
                },
                "extraTime": {
                    "homeTeam": null,
                    "awayTeam": null
                },
                "penalties": {
                    "homeTeam": null,
                    "awayTeam": null
                }
            },
            "homeTeam": {
                "id": 78,
                "name": "Club Atlético de Madrid"
            },
            "awayTeam": {
                "id": 299,
                "name": "SD Huesca"
            },
            "referees": []
        },
        {
            "id": 308629,
            "season": {
                "id": 635,
                "startDate": "2020-09-13",
                "endDate": "2021-05-23",
                "currentMatchday": 33
            },
            "utcDate": "2021-04-22T19:00:00Z",
            "status": "SCHEDULED",
            "matchday": 31,
            "stage": "REGULAR_SEASON",
            "group": "Regular Season",
            "lastUpdated": "2021-04-01T18:33:13Z",
            "odds": {
                "msg": "Activate Odds-Package in User-Panel to retrieve odds."
            },
            "score": {
                "winner": null,
                "duration": "REGULAR",
                "fullTime": {
                    "homeTeam": null,
                    "awayTeam": null
                },
                "halfTime": {
                    "homeTeam": null,
                    "awayTeam": null
                },
                "extraTime": {
                    "homeTeam": null,
                    "awayTeam": null
                },
                "penalties": {
                    "homeTeam": null,
                    "awayTeam": null
                }
            },
            "homeTeam": {
                "id": 92,
                "name": "Real Sociedad de Fútbol"
            },
            "awayTeam": {
                "id": 558,
                "name": "RC Celta de Vigo"
            },
            "referees": []
        },
        {
            "id": 308631,
            "season": {
                "id": 635,
                "startDate": "2020-09-13",
                "endDate": "2021-05-23",
                "currentMatchday": 33
            },
            "utcDate": "2021-04-22T19:00:00Z",
            "status": "SCHEDULED",
            "matchday": 31,
            "stage": "REGULAR_SEASON",
            "group": "Regular Season",
            "lastUpdated": "2021-04-01T18:33:13Z",
            "odds": {
                "msg": "Activate Odds-Package in User-Panel to retrieve odds."
            },
            "score": {
                "winner": null,
                "duration": "REGULAR",
                "fullTime": {
                    "homeTeam": null,
                    "awayTeam": null
                },
                "halfTime": {
                    "homeTeam": null,
                    "awayTeam": null
                },
                "extraTime": {
                    "homeTeam": null,
                    "awayTeam": null
                },
                "penalties": {
                    "homeTeam": null,
                    "awayTeam": null
                }
            },
            "homeTeam": {
                "id": 83,
                "name": "Granada CF"
            },
            "awayTeam": {
                "id": 278,
                "name": "SD Eibar"
            },
            "referees": []
        },
        {
            "id": 308625,
            "season": {
                "id": 635,
                "startDate": "2020-09-13",
                "endDate": "2021-05-23",
                "currentMatchday": 33
            },
            "utcDate": "2021-04-22T20:00:00Z",
            "status": "SCHEDULED",
            "matchday": 31,
            "stage": "REGULAR_SEASON",
            "group": "Regular Season",
            "lastUpdated": "2021-04-01T18:33:13Z",
            "odds": {
                "msg": "Activate Odds-Package in User-Panel to retrieve odds."
            },
            "score": {
                "winner": null,
                "duration": "REGULAR",
                "fullTime": {
                    "homeTeam": null,
                    "awayTeam": null
                },
                "halfTime": {
                    "homeTeam": null,
                    "awayTeam": null
                },
                "extraTime": {
                    "homeTeam": null,
                    "awayTeam": null
                },
                "penalties": {
                    "homeTeam": null,
                    "awayTeam": null
                }
            },
            "homeTeam": {
                "id": 81,
                "name": "FC Barcelona"
            },
            "awayTeam": {
                "id": 82,
                "name": "Getafe CF"
            },
            "referees": []
        }
    ]
}