{
    "id": 82,
    "area": {
        "id": 2224,
        "name": "Spain"
    },
    "activeCompetitions": [
        {
            "id": 2014,
            "area": {
                "id": 2224,
                "name": "Spain"
            },
            "name": "Primera Division",
            "code": "PD",
            "plan": "TIER_ONE",
            "lastUpdated": "2021-03-20T02:42:34Z"
        },
        {
            "id": 2079,
            "area": {
                "id": 2224,
                "name": "Spain"
            },
            "name": "Copa del Rey",
            "code": "CDR",
            "plan": "TIER_THREE",
            "lastUpdated": "2021-03-05T04:30:02Z"
        }
    ],
    "name": "Getafe CF",
    "shortName": "Getafe",
    "tla": "GET",
    "crestUrl": "https://crests.football-data.org/82.svg",
    "address": "Avenida Teresa de Calcuta, s/n Getafe 28903",
    "phone": "+34 (916) 959643",
    "website": "http://www.getafecf.com",
    "email": "fsantos@getafecf.com",
    "founded": 1946,
    "clubColors": "Blue / White",
    "venue": "Coliseum Alfonso Pérez",
    "squad": [
        {
            "id": 78,
            "name": "David Soria",
            "position": "Goalkeeper",
            "dateOfBirth": "1993-04-04T00:00:00Z",
            "countryOfBirth": "Spain",
            "nationality": "Spain",
            "shirtNumber": null,
            "role": "PLAYER"
        },
        {
            "id": 3120,
            "name": "Ángel",
            "position": "Attacker",
            "dateOfBirth": "1987-04-26T00:00:00Z",
            "countryOfBirth": "Spain",
            "nationality": "Spain",
            "shirtNumber": null,
            "role": "PLAYER"
        },
        {
            "id": 3123,
            "name": "Portillo",
            "position": "Midfielder",
            "dateOfBirth": "1990-06-13T00:00:00Z",
            "countryOfBirth": "Spain",
            "nationality": "Spain",
            "shirtNumber": null,
            "role": "PLAYER"
        },
        {
            "id": 3125,
            "name": "Dakonam Djené",
            "position": "Defender",
            "dateOfBirth": "1991-12-31T00:00:00Z",
            "countryOfBirth": "Togo",
            "nationality": "Togo",
            "shirtNumber": null,
            "role": "PLAYER"
        },
        {
            "id": 3129,
            "name": "David Alba",
            "position": "Defender",
            "dateOfBirth": "1999-05-05T00:00:00Z",
            "countryOfBirth": "Spain",
            "nationality": "Spain",
            "shirtNumber": null,
            "role": "PLAYER"
        },
        {
            "id": 3155,
            "name": "Pepe Bordalás",
            "position": null,
            "dateOfBirth": "1964-03-05T00:00:00Z",
            "countryOfBirth": "Spain",
            "nationality": "Spain",
            "shirtNumber": null,
            "role": "COACH"
        },
        {
            "id": 3441,
            "name": "Nemanja Maksimović",
            "position": "Midfielder",
            "dateOfBirth": "1995-01-26T00:00:00Z",
            "countryOfBirth": "Serbia",
            "nationality": "Serbia",
            "shirtNumber": null,
            "role": "PLAYER"
        },
        {
            "id": 8015,
            "name": "Allan Nyom",
            "position": "Defender",
            "dateOfBirth": "1988-05-10T00:00:00Z",
            "countryOfBirth": "France",
            "nationality": "Cameroon",
            "shirtNumber": null,
            "role": "PLAYER"
        },
        {
            "id": 15863,
            "name": "Cucurella",
            "position": "Midfielder",
            "dateOfBirth": "1998-07-22T00:00:00Z",
            "countryOfBirth": "Spain",
            "nationality": "Spain",
            "shirtNumber": null,
            "role": "PLAYER"
        },
        {
            "id": 15867,
            "name": "Aleñà",
            "position": "Midfielder",
            "dateOfBirth": "1998-01-05T00:00:00Z",
            "countryOfBirth": "Spain",
            "nationality": "Spain",
            "shirtNumber": null,
            "role": "PLAYER"
        },
        {
            "id": 32381,
            "name": "Mata",
            "position": "Attacker",
            "dateOfBirth": "1988-10-24T00:00:00Z",
            "countryOfBirth": "Spain",
            "nationality": "Spain",
            "shirtNumber": null,
            "role": "PLAYER"
        },
        {
            "id": 32415,
            "name": "Cucho Hernández",
            "position": "Attacker",
            "dateOfBirth": "1999-04-20T00:00:00Z",
            "countryOfBirth": "Colombia",
            "nationality": "Colombia",
            "shirtNumber": null,
            "role": "PLAYER"
        },
        {
            "id": 32520,
            "name": "Rubén Yáñez",
            "position": "Goalkeeper",
            "dateOfBirth": "1993-10-12T00:00:00Z",
            "countryOfBirth": "Spain",
            "nationality": "Spain",
            "shirtNumber": null,
            "role": "PLAYER"
        },
        {
            "id": 32573,
            "name": "Xabi Etxeita",
            "position": "Defender",
            "dateOfBirth": "1987-10-31T00:00:00Z",
            "countryOfBirth": "Spain",
            "nationality": "Spain",
            "shirtNumber": null,
            "role": "PLAYER"
        },
        {
            "id": 32750,
            "name": "Damián Suárez",
            "position": "Defender",
            "dateOfBirth": "1988-04-27T00:00:00Z",
            "countryOfBirth": "Uruguay",
            "nationality": "Uruguay",
            "shirtNumber": null,
            "role": "PLAYER"
        },
        {
            "id": 32754,
            "name": "Mathías Olivera",
            "position": "Defender",
            "dateOfBirth": "1997-10-31T00:00:00Z",
            "countryOfBirth": "Uruguay",
            "nationality": "Uruguay",
            "shirtNumber": null,
            "role": "PLAYER"
        },
        {
            "id": 32758,
            "name": "Mauro Arambarri",
            "position": "Midfielder",
            "dateOfBirth": "1995-09-30T00:00:00Z",
            "countryOfBirth": "Uruguay",
            "nationality": "Uruguay",
            "shirtNumber": null,
            "role": "PLAYER"
        },
        {
            "id": 32763,
            "name": "José Vegar",
            "position": null,
            "dateOfBirth": "1975-02-22T00:00:00Z",
            "countryOfBirth": "Spain",
            "nationality": "Spain",
            "shirtNumber": null,
            "role": "ASSISTANT_COACH"
        },
        {
            "id": 32924,
            "name": "Chema",
            "position": "Defender",
            "dateOfBirth": "1992-03-03T00:00:00Z",
            "countryOfBirth": "Spain",
            "nationality": "Spain",
            "shirtNumber": null,
            "role": "PLAYER"
        },
        {
            "id": 32932,
            "name": "Erick Cabaco",
            "position": "Defender",
            "dateOfBirth": "1995-04-19T00:00:00Z",
            "countryOfBirth": "Uruguay",
            "nationality": "Uruguay",
            "shirtNumber": null,
            "role": "PLAYER"
        },
        {
            "id": 33130,
            "name": "Darío Poveda",
            "position": "Attacker",
            "dateOfBirth": "1997-03-13T00:00:00Z",
            "countryOfBirth": "Spain",
            "nationality": "Spain",
            "shirtNumber": null,
            "role": "PLAYER"
        },
        {
            "id": 33132,
            "name": "Enes Ünal",
            "position": "Attacker",
            "dateOfBirth": "1997-05-10T00:00:00Z",
            "countryOfBirth": "Turkey",
            "nationality": "Turkey",
            "shirtNumber": null,
            "role": "PLAYER"
        },
        {
            "id": 33526,
            "name": "Timor",
            "position": "Midfielder",
            "dateOfBirth": "1989-01-17T00:00:00Z",
            "countryOfBirth": "Spain",
            "nationality": "Spain",
            "shirtNumber": null,
            "role": "PLAYER"
        },
        {
            "id": 48555,
            "name": "Takefusa Kubo",
            "position": "Attacker",
            "dateOfBirth": "2001-06-04T00:00:00Z",
            "countryOfBirth": "Japan",
            "nationality": "Japan",
            "shirtNumber": null,
            "role": "PLAYER"
        },
        {
            "id": 83351,
            "name": "Juan Iglesias",
            "position": "Midfielder",
            "dateOfBirth": "1998-07-03T00:00:00Z",
            "countryOfBirth": "Spain",
            "nationality": "Spain",
            "shirtNumber": null,
            "role": "PLAYER"
        },
        {
            "id": 98027,
            "name": "Sofian Chakla",
            "position": "Defender",
            "dateOfBirth": "1993-09-02T00:00:00Z",
            "countryOfBirth": "Morocco",
            "nationality": "Morocco",
            "shirtNumber": null,
            "role": "PLAYER"
        },
        {
            "id": 110897,
            "name": "Sabit Abdulai",
            "position": "Midfielder",
            "dateOfBirth": "1999-05-11T00:00:00Z",
            "countryOfBirth": "Ghana",
            "nationality": "Ghana",
            "shirtNumber": null,
            "role": "PLAYER"
        },
        {
            "id": 111465,
            "name": "Ryan Nolan",
            "position": "Defender",
            "dateOfBirth": "1999-02-17T00:00:00Z",
            "countryOfBirth": "Republic of Ireland",
            "nationality": "Republic of Ireland",
            "shirtNumber": null,
            "role": "PLAYER"
        },
        {
            "id": 156702,
            "name": "John Patrick",
            "position": "Midfielder",
            "dateOfBirth": "2003-09-24T00:00:00Z",
            "countryOfBirth": "Spain",
            "nationality": "Spain",
            "shirtNumber": null,
            "role": "PLAYER"
        },
        {
            "id": 157449,
            "name": "Mamor Niang",
            "position": "Attacker",
            "dateOfBirth": "2002-02-04T00:00:00Z",
            "countryOfBirth": "Spain",
            "nationality": "Senegal",
            "shirtNumber": null,
            "role": "PLAYER"
        },
        {
            "id": 157589,
            "name": "Amankwaa Akurugu",
            "position": "Defender",
            "dateOfBirth": "2001-11-20T00:00:00Z",
            "countryOfBirth": "Ghana",
            "nationality": "Ghana",
            "shirtNumber": null,
            "role": "PLAYER"
        },
        {
            "id": 157723,
            "name": "Chinchu",
            "position": "Defender",
            "dateOfBirth": "2002-03-05T00:00:00Z",
            "countryOfBirth": "Spain",
            "nationality": "Spain",
            "shirtNumber": null,
            "role": "PLAYER"
        }
    ],
    "lastUpdated": "2021-02-08T10:09:25Z"
}